Name,Sex,Equipment,Division,BodyweightKg,WeightClassKg,Squat1Kg,Squat2Kg,Squat3Kg,Best3SquatKg,Bench1Kg,Bench2Kg,Bench3Kg,Best3BenchKg,Deadlift1Kg,Deadlift2Kg,Deadlift3Kg,Best3DeadliftKg,TotalKg,Event,Place
Jesse Leitzel,M,Multi-ply,M_ME_2_PRO,145.15,140+,-249.48,249.48,-274.42,249.48,249.48,-272.16,-272.16,249.48,226.8,249.48,-272.16,249.48,748.43,SBD,1
Jenna Rowe,F,Multi-ply,F_OE_PRO,72.57,75,231.33,249.48,-258.55,249.48,108.86,115.67,122.47,122.47,181.44,190.51,204.12,204.12,576.06,SBD,1
Mike Newton,M,Wraps,M_OR_PRO,122.47,125,-251.74,251.74,272.16,272.16,183.7,192.78,199.58,199.58,226.8,254.01,276.69,276.69,748.43,SBD,1
Martin Lebrun,M,Multi-ply,M_OE_AM,91.85,100,251.74,265.35,-272.16,265.35,158.76,-174.63,-174.63,158.76,247.21,-265.35,265.35,265.35,689.46,SBD,2
Rob Forell,M,Wraps,M_OR_PRO,95.03,100,265.35,274.42,-283.5,274.42,185.97,-192.78,195.04,195.04,265.35,274.42,285.76,285.76,755.23,SBD,1
Shawn Petronella,M,Wraps,M_OR_PRO,142.43,140+,-340.19,-362.87,-362.87,,-204.12,,,,,,,,,SBD,DQ
Alex Bertolino,M,Multi-ply,M_OE_PRO,97.52,100,-381.02,-381.02,,,,,,,,,,,,SBD,DQ
Bill Fritz,M,Multi-ply,M_OE_PRO,128.82,140,415.04,-437.72,,415.04,278.96,-299.37,,278.96,283.5,299.37,-319.78,299.37,993.37,SBD,1
Matt Magnavita,M,Multi-ply,M_OE_PRO,157.4,140+,430.91,-460.4,-460.4,430.91,-317.51,-340.19,,,-274.42,-274.42,274.42,274.42,,SBD,DQ
Bob Merkh,M,Multi-ply,M_OE_PRO,120.43,125,455.86,476.27,,476.27,61.23,-369.68,-369.68,61.23,344.73,-362.87,362.87,362.87,900.38,SBD,2
Chris Della Fave,M,Multi-ply,M_OE_PRO,116.8,125,458.13,498.95,,498.95,61.23,-324.32,-340.19,61.23,367.41,-390.09,-390.09,367.41,927.6,SBD,1
Steve Frank,M,Raw,M_OR_PRO,118.98,125,,,,,-197.31,-206.38,-226.8,,,,,,,B,DQ
Matt Watson,M,Multi-ply,M_SEM_PRO,119.29,125,,,,,226.8,249.48,272.16,272.16,265.35,283.5,-294.84,283.5,555.65,BD,1
Tommy Desbiens,M,Multi-ply,M_OE_PRO,94.57,100,,,,,226.8,249.48,272.16,272.16,,,,,272.16,B,1
Mike Lipinski,M,Multi-ply,M_OE_PRO,89.36,90,,,,,-249.48,-272.16,-272.16,,,,,,,B,DQ
Chris Kitchen,M,Multi-ply,M_ME_2_PRO,123.83,125,,,,,249.48,-260.82,260.82,260.82,,,,,260.82,B,1
Kyle Hines,M,Multi-ply,M_OE_PRO,108.86,110,,,,,249.48,-274.42,-274.42,249.48,,,,,249.48,B,1
Hugo Gougeon,M,Multi-ply,M_OE_PRO,88.68,90,,,,,-260.82,260.82,274.42,274.42,,,,,274.42,B,1
Nick Rouse,M,Multi-ply,M_OE_AM,133.13,140,,,,,-272.16,272.16,-294.84,272.16,,,,,272.16,B,1
Keith O'Dell,M,Multi-ply,M_SEM_AM,96.62,100,,,,,272.16,317.51,,317.51,,,,,317.51,B,1
Rich Putnam,M,Multi-ply,M_OE_PRO,122.02,125,,,,,333.39,-347,-347,333.39,,,,,333.39,B,1
Will Barotti,M,Multi-ply,M_OE_PRO,139.48,140,,,,,390.09,-430.91,-430.91,390.09,272.16,-322.05,,272.16,662.25,BD,1
Jessica Walton,F,Wraps,F_OR_AM,71.44,75,90.72,102.06,113.4,113.4,45.36,52.16,-58.97,52.16,124.74,136.08,140.61,140.61,306.17,SBD,1
Ashley Cook,F,Wraps,F_OR_AM,65.32,67.5,-124.74,124.74,-136.08,124.74,61.23,65.77,-68.04,65.77,142.88,154.22,163.29,163.29,353.8,SBD,1
Claudia Martellino,F,Raw,F_MR_1_AM,81.87,82.5,,,,,72.57,77.11,81.65,81.65,,,,,81.65,B,1
Sarah St Andrews,F,Wraps,F_OR_AM,111.81,90+,170.1,181.44,-195.04,181.44,72.57,-77.11,77.11,77.11,149.69,167.83,-183.7,167.83,426.38,SBD,1
Sarah Hicken,F,Raw,F_OR_AM,77.11,82.5,,,,,-81.65,92.99,102.06,102.06,163.29,172.37,183.7,183.7,285.76,BD,1
Michelle Fritz,F,Multi-ply,F_OE_AM,64.86,67.5,151.95,163.29,181.44,181.44,83.91,92.99,-102.06,92.99,102.06,115.67,-124.74,115.67,390.09,SBD,1
Mélanie Girard,F,Wraps,F_OR_PRO,55.57,56,163.29,174.63,-183.7,174.63,95.25,104.33,108.86,108.86,163.29,176.9,185.97,185.97,469.47,SBD,1
Mark Dehner,M,Multi-ply,M_SEM_PRO,76.88,82.5,188.24,201.85,210.92,210.92,-111.13,-115.67,-115.67,,181.44,192.78,201.85,201.85,,SBD,DQ
Mike Rabine,M,Raw,M_OR_AM,108.86,110,,,,,120.2,-129.27,129.27,129.27,204.12,215.46,222.26,222.26,351.53,BD,1
Franklin Clark,M,Multi-ply,M_OE_AM,92.08,100,224.53,238.14,-272.16,238.14,142.88,156.49,170.1,170.1,181.44,199.58,226.8,226.8,635.03,SBD,3
Steve Dubé,F,Raw,F_MR_2_AM,118.39,90+,,,,,147.42,151.95,-158.76,151.95,,,,,151.95,B,1
Wil Harvey,M,Wraps,M_OR_AM,154.67,140+,231.33,-249.48,249.48,249.48,149.69,161.03,-172.37,161.03,215.46,233.6,249.48,249.48,659.98,SBD,1
Paul Nicholson,M,Raw,M_SR_PRO,89.36,90,,,,,151.95,-165.56,165.56,165.56,242.67,251.74,-265.35,251.74,417.3,BD,1
Tom Conti,M,Multi-ply,M_ME_2_AM,109.41,110,,,,,151.95,165.56,-181.44,165.56,,,,,165.56,B,1
Zachary Bishop,M,Wraps,M_JR_AM,133.36,140,272.16,-294.84,-294.84,272.16,158.76,-172.37,-172.37,158.76,226.8,249.48,-265.35,249.48,680.39,SBD,1
Stéphane Morrissette,M,Raw,M_MR_2_PRO,120.66,125,,,,,165.56,174.63,-181.44,174.63,,,,,174.63,B,1
Louis Imperatrice,M,Multi-ply,M_OE_PRO,71.89,75,219.99,-238.14,-238.14,219.99,179.17,201.85,-226.8,201.85,179.17,201.85,-219.99,201.85,623.69,SBD,1
Kelly Duffy,F,Multi-ply,F_OE_AM,119.07,90+,,,,,183.7,192.78,204.12,204.12,,,,,204.12,B,1
Anthony Schnupp,M,Multi-ply,M_OE_AM,106.82,110,281.23,-303.91,-303.91,281.23,188.24,208.65,,208.65,215.46,235.87,,235.87,725.75,SBD,1
Garrett Snyder,M,Multi-ply,M_OE_AM,129.5,140,,,,,192.78,213.19,-226.8,213.19,,,,,213.19,B,2
John Varney,M,Multi-ply,M_ME_1_AM,156.49,140+,,,,,-206.38,206.38,-226.8,206.38,,,,,206.38,B,1
Adam Fish,M,Multi-ply,M_OE_AM,97.07,100,-288.03,288.03,317.51,317.51,-226.8,-226.8,226.8,226.8,204.12,215.46,-226.8,215.46,759.77,SBD,1
Isaac Oddy,M,Raw,M_OR_AM,88.45,90,,,,,,,,,197.31,206.38,-222.26,206.38,206.38,D,1
Ken Foreman,M,Multi-ply,M_OE_PRO,96.39,100,,,,,,,,,247.21,265.35,-274.42,265.35,265.35,D,1
Rob Forell,M,Wraps,M_SR_PRO,95.03,100,265.35,274.42,-283.5,274.42,185.97,-192.78,195.04,195.04,265.35,274.42,285.76,285.76,755.23,SBD,1
Mélanie Girard,F,Wraps,F_SR_PRO,55.57,56,163.29,174.63,-183.7,174.63,95.25,104.33,108.86,108.86,163.29,176.9,185.97,185.97,469.47,SBD,1
