Division,WeightClassKg,Place,Name,Team,BodyweightKg,Best3SquatKg,Best3BenchKg,Best3DeadliftKg,TotalKg,Equipment,Event,Sex
Boys,52,1,Lleyton Frazier,Tuscola Jim Ned,50.26,99.79,70.31,122.47,292.57,Single-ply,SBD,M
Boys,52,2,Jackson Heidenheimer,Anson,51.71,90.72,52.16,104.33,247.21,Single-ply,SBD,M
Boys,52,3,Floyd Diamond,Tuscola Jim Ned,43.45,90.72,38.56,68.04,197.31,Single-ply,SBD,M
Boys,52,4,Gage Rolon,Abilene Cooper,47.85,43.09,29.48,68.04,140.61,Single-ply,SBD,M
Boys,56,1,Axel Marcenaro,Merkel,53.61,136.08,81.65,149.69,367.41,Single-ply,SBD,M
Boys,56,2,Brady Montgomery,Tuscola Jim Ned,54.25,117.93,68.04,131.54,317.51,Single-ply,SBD,M
Boys,56,3,Isaiah Cristan,Abilene Cooper,52.21,74.84,43.09,97.52,215.46,Single-ply,SBD,M
Boys,60,1,Luis Morales,San Angelo Central,59.78,151.95,86.18,149.69,387.82,Single-ply,SBD,M
Boys,60,2,Gilbert Borrego,Merkel,57.7,127.01,90.72,158.76,376.48,Single-ply,SBD,M
Boys,60,3,Alec Arredondo,Abilene,58.29,147.42,81.65,147.42,376.48,Single-ply,SBD,M
Boys,60,4,Fox Talamantes,Abilene,56.61,127.01,70.31,127.01,324.32,Single-ply,SBD,M
Boys,60,5,Darius Monnin,Merkel,59.78,92.99,56.7,115.67,265.35,Single-ply,SBD,M
Boys,60,6,Christian Rodriguez,Abilene Cooper,58.83,70.31,63.5,104.33,238.14,Single-ply,SBD,M
Boys,60,DQ,Ty Sims,Abilene Cooper,59.83,,,,,Single-ply,SBD,M
Boys,67.5,1,Christian Alexander,Tuscola Jim Ned,65.95,165.56,113.4,183.7,462.66,Single-ply,SBD,M
Boys,67.5,2,Michael Shubert,Abilene Cooper,67.04,136.08,77.11,176.9,390.09,Single-ply,SBD,M
Boys,67.5,3,Bryce Munoz,Anson,62.05,154.22,72.57,149.69,376.48,Single-ply,SBD,M
Boys,67.5,4,Isaac Ortega,Abilene,67.09,149.69,88.45,136.08,374.21,Single-ply,SBD,M
Boys,67.5,5,Noah Orozco,Abilene Cooper,67.13,142.88,79.38,149.69,371.95,Single-ply,SBD,M
Boys,67.5,6,Moses Ruzoviyo,Abilene,61.92,136.08,81.65,147.42,365.14,Single-ply,SBD,M
Boys,67.5,7,Kasey Dean,Abilene,62.05,136.08,70.31,142.88,349.27,Single-ply,SBD,M
Boys,67.5,8,Ramiro Leal,Merkel,60.78,111.13,63.5,127.01,301.64,Single-ply,SBD,M
Boys,67.5,9,Slade Shipman,Merkel,65.95,104.33,65.77,117.93,288.03,Single-ply,SBD,M
Boys,67.5,DQ,Brandon Gassiot,Tuscola Jim Ned,63.23,,,,,Single-ply,SBD,M
Boys,67.5,DQ,Tyler Razio,Tuscola Jim Ned,66.59,124.74,,,,Single-ply,SBD,M
Boys,67.5,DQ,Omar Duarte,San Angelo Central,67.13,,,,,Single-ply,SBD,M
Boys,75,1,Ian Smith,Abilene,74.53,179.17,88.45,181.44,449.06,Single-ply,SBD,M
Boys,75,2,Mario Martinez,San Angelo Central,74.84,165.56,117.93,161.03,444.52,Single-ply,SBD,M
Boys,75,3,Blake Proctor,Abilene,74.84,174.63,97.52,170.1,442.25,Single-ply,SBD,M
Boys,75,4,AJ Gonzales,Abilene,74.71,163.29,104.33,161.03,428.64,Single-ply,SBD,M
Boys,75,5,Gabriel Salazar,Sweetwater,74.57,158.76,86.18,181.44,426.38,Single-ply,SBD,M
Boys,75,6,Jacob Contreras,Tuscola Jim Ned,69.49,158.76,86.18,170.1,415.04,Single-ply,SBD,M
Boys,75,7,Aaron Manke,Abilene Cooper,74.03,122.47,70.31,163.29,356.07,Single-ply,SBD,M
Boys,75,8,Colton Brown,Anson,74.84,131.54,72.57,149.69,353.8,Single-ply,SBD,M
Boys,75,9,Casey Hall,Tuscola Jim Ned,70.49,113.4,83.91,138.35,335.66,Single-ply,SBD,M
Boys,75,10,Dillon McCoy,Tuscola Jim Ned,72.94,99.79,81.65,136.08,317.51,Single-ply,SBD,M
Boys,75,11,Audie Goodwin,Tuscola Jim Ned,74.12,108.86,72.57,113.4,294.84,Single-ply,SBD,M
Boys,75,DQ,Jacob Cantu,Abilene Cooper,74.84,149.69,,,,Single-ply,SBD,M
Boys,75,DQ,Rueban Perez,Abilene Cooper,73.16,,,,,Single-ply,SBD,M
Boys,82.5,1,Devin Romero,Abilene,77.11,206.38,97.52,206.38,510.29,Single-ply,SBD,M
Boys,82.5,2,Joesph Rees,Tuscola Jim Ned,80.01,183.7,102.06,215.46,501.22,Single-ply,SBD,M
Boys,82.5,3,Chris Jones #5,Anson,78.74,179.17,102.06,199.58,480.81,Single-ply,SBD,M
Boys,82.5,4,Joseph Montgomery,Anson,77.29,176.9,104.33,183.7,464.93,Single-ply,SBD,M
Boys,82.5,5,Donte Mitchell,Abilene Cooper,80.92,154.22,104.33,170.1,428.64,Single-ply,SBD,M
Boys,82.5,6,Trey Thompson,Merkel,82.01,156.49,102.06,158.76,417.3,Single-ply,SBD,M
Boys,82.5,7,Xavier Rodriguez,Anson,76.48,136.08,65.77,167.83,369.68,Single-ply,SBD,M
Boys,82.5,8,Cooper Graham,Anson,75.93,106.59,58.97,127.01,292.57,Single-ply,SBD,M
Boys,90,1,Actavias Lowry,Abilene Cooper,84.64,192.78,129.27,195.04,517.1,Single-ply,SBD,M
Boys,90,2,Braden Kesler,Tuscola Jim Ned,89.81,176.9,88.45,226.8,492.15,Single-ply,SBD,M
Boys,90,3,Houston Hance,Abilene Cooper,86.36,176.9,115.67,197.31,489.88,Single-ply,SBD,M
Boys,90,4,John Daniel Lopez,San Angelo Central,89.27,183.7,115.67,176.9,476.27,Single-ply,SBD,M
Boys,90,5,Eduardo Marin,Anson,84.1,183.7,106.59,165.56,455.86,Single-ply,SBD,M
Boys,90,6,Harold Collins,Abilene,89.72,167.83,92.99,172.37,433.18,Single-ply,SBD,M
Boys,90,7,Leroy Santana,Abilene,83.1,174.63,97.52,158.76,430.91,Single-ply,SBD,M
Boys,90,8,Joe Valdez,Merkel,89.45,138.35,88.45,170.1,396.89,Single-ply,SBD,M
Boys,90,9,Jacob Turner,Tuscola Jim Ned,86.45,136.08,77.11,163.29,376.48,Single-ply,SBD,M
Boys,90,10,Noah Flowers,Abilene Cooper,85.82,136.08,79.38,151.95,367.41,Single-ply,SBD,M
Boys,90,11,Diego Mata,Abilene Cooper,86.36,133.81,79.38,142.88,356.07,Single-ply,SBD,M
Boys,90,DQ,Zach Smith,Abilene Cooper,89.81,,,,,Single-ply,SBD,M
Boys,100,1,Blake Parker,Abilene Cooper,98.57,226.8,129.27,195.04,551.11,Single-ply,SBD,M
Boys,100,2,Ryland Madrid,Abilene,94.8,215.46,104.33,190.51,510.29,Single-ply,SBD,M
Boys,100,3,Michael Martinez,Abilene,97.16,195.04,108.86,183.7,487.61,Single-ply,SBD,M
Boys,100,4,Tye Landeros,Tuscola Jim Ned,97.43,188.24,106.59,174.63,469.47,Single-ply,SBD,M
Boys,100,5,Nick Gonzalez,San Angelo Central,99.43,170.1,124.74,170.1,464.93,Single-ply,SBD,M
Boys,100,6,Brandon Romero,Abilene Cooper,93.53,176.9,113.4,167.83,458.13,Single-ply,SBD,M
Boys,100,7,Hunter Stelly,San Angelo Central,99.06,170.1,106.59,145.15,421.84,Single-ply,SBD,M
Boys,100,8,Andrew Purdun,Anson,99.79,158.76,104.33,158.76,421.84,Single-ply,SBD,M
Boys,100,9,Triston Patterson,Tuscola Jim Ned,90.99,122.47,81.65,136.08,340.19,Single-ply,SBD,M
Boys,100,DQ,Peyton Menchaca,San Angelo Central,95.07,161.03,,,,Single-ply,SBD,M
Boys,100,DQ,Daven Manning,San Angelo Central,99.79,,,,,Single-ply,SBD,M
Boys,110,1,Dylan Jimenez,Sweetwater,107.5,219.99,120.2,199.58,539.77,Single-ply,SBD,M
Boys,110,2,Carlos Gallegos,Sweetwater,109.77,204.12,113.4,206.38,523.9,Single-ply,SBD,M
Boys,110,3,Bryce Templeton,Abilene Cooper,105.78,181.44,117.93,192.78,492.15,Single-ply,SBD,M
Boys,110,4,Peyton Weatherly,Tuscola Jim Ned,106.68,167.83,106.59,174.63,449.06,Single-ply,SBD,M
Boys,110,5,Jesus Lara,Abilene Cooper,102.87,149.69,102.06,176.9,428.64,Single-ply,SBD,M
Boys,110,6,Nick Nanez,Abilene Cooper,109.68,156.49,106.59,154.22,417.3,Single-ply,SBD,M
Boys,110,7,Israel DelaCruz,Anson,100.79,165.56,92.99,145.15,403.7,Single-ply,SBD,M
Boys,125,1,Evan Tate,Tuscola Jim Ned,121.11,233.6,140.61,240.4,614.62,Single-ply,SBD,M
Boys,125,2,Slayde Anderson,Abilene,121.11,235.87,140.61,219.99,596.47,Single-ply,SBD,M
Boys,125,3,Donnie Bowers,San Angelo Central,122.74,240.4,127.01,215.46,582.87,Single-ply,SBD,M
Boys,125,4,Anthony Arellano,Abilene Cooper,117.66,231.33,129.27,219.99,580.6,Single-ply,SBD,M
Boys,125,5,Jonathan Castaneda,Abilene Cooper,113.17,210.92,124.74,233.6,569.26,Single-ply,SBD,M
Boys,125,6,Brent Alexander,Abilene Cooper,113.08,222.26,129.27,204.12,555.65,Single-ply,SBD,M
Boys,125,7,Dylan Burnett,Tuscola Jim Ned,112.85,217.72,124.74,197.31,539.77,Single-ply,SBD,M
Boys,125,8,John Arellano,Abilene Cooper,119.98,208.65,122.47,188.24,519.36,Single-ply,SBD,M
Boys,125,9,No Perez,Abilene,118.34,197.31,142.88,176.9,517.1,Single-ply,SBD,M
Boys,125,10,Sammy Renteria,Abilene,119.43,226.8,111.13,174.63,512.56,Single-ply,SBD,M
Boys,125,11,Mekhi Reid,Abilene,118.84,181.44,129.27,174.63,485.34,Single-ply,SBD,M
Boys,125,12,Thomas Squyers,Abilene Cooper,118.43,154.22,108.86,149.69,412.77,Single-ply,SBD,M
Boys,125,DQ,Robert Bellman,Abilene Cooper,113.44,,,,,Single-ply,SBD,M
Boys,125+,1,Cedric Smith,San Angelo Central,136.08,242.67,142.88,226.8,612.35,Single-ply,SBD,M
Boys,125+,2,Ruben Leija,Abilene,143.56,208.65,147.42,222.26,578.33,Single-ply,SBD,M
Boys,125+,3,Sergio Rivero,San Angelo Central,136.26,219.99,124.74,208.65,553.38,Single-ply,SBD,M
Boys,125+,4,Marquise Lyons,Abilene,126.1,226.8,108.86,183.7,519.36,Single-ply,SBD,M
Boys,125+,5,Jeremiah Berrera,Sweetwater,125.65,206.38,90.72,215.46,512.56,Single-ply,SBD,M
Boys,125+,6,Jackson Sellers,Abilene,133.45,181.44,102.06,158.76,442.25,Single-ply,SBD,M
Boys,125+,7,Jonathan Pressley,Abilene Cooper,137.17,111.13,63.5,124.74,299.37,Single-ply,SBD,M
Boys,125+,DQ,Matt Ontiveroz,San Angelo Central,136.08,,,,,Single-ply,SBD,M
