Division,WeightClassKg,Place,Name,Team,BodyweightKg,Best3SquatKg,Best3BenchKg,Best3DeadliftKg,TotalKg,Equipment,Event,Sex
Boys,60,1,Dacion Brown,Fort Worth Arlington Heights,57.7,127.01,81.65,142.88,351.53,Single-ply,SBD,M
Boys,60,2,Zach Rogers,Fort Worth Arlington Heights,55.88,90.72,61.23,108.86,260.82,Single-ply,SBD,M
Boys,67.5,1,Tyler Sutton,Fort Worth Western Hills,64.14,142.88,106.59,167.83,417.3,Single-ply,SBD,M
Boys,67.5,2,Jimmy Strange,Fort Worth Paschal,62.78,124.74,74.84,142.88,342.46,Single-ply,SBD,M
Boys,67.5,3,Robert Mendoza,Fort Worth Western Hills,66.68,113.4,61.23,161.03,335.66,Single-ply,SBD,M
Boys,67.5,4,James Farley,Fort Worth Paschal,66.22,106.59,54.43,136.08,297.1,Single-ply,SBD,M
Boys,67.5,5,Andrew Wallace,Fort Worth Paschal,65.14,108.86,61.23,117.93,288.03,Single-ply,SBD,M
Boys,67.5,6,Jesse Garcia,Fort Worth Western Hills,64.05,79.38,56.7,129.27,265.35,Single-ply,SBD,M
Boys,67.5,7,Thomas Jarrett,Fort Worth Paschal,62.14,83.91,61.23,102.06,247.21,Single-ply,SBD,M
Boys,67.5,DQ,Erik Rodrigues,Fort Worth Paschal,62.87,,,,,Single-ply,SBD,M
Boys,75,1,Gabriel Gomez,Fort Worth Western Hills,69.49,124.74,92.99,142.88,360.61,Single-ply,SBD,M
Boys,75,2,Lorenzo Nunez,Fort Worth Paschal,73.03,120.2,79.38,127.01,326.59,Single-ply,SBD,M
Boys,75,3,Charles Ortiz,Fort Worth Paschal,68.4,102.06,79.38,124.74,306.17,Single-ply,SBD,M
Boys,75,4,Anderson Burdette,Fort Worth Paschal,68.31,120.2,61.23,120.2,301.64,Single-ply,SBD,M
Boys,75,5,Ashton Cathey,Fort Worth Western Hills,71.03,111.13,56.7,120.2,288.03,Single-ply,SBD,M
Boys,75,6,Drew Bullinger,Fort Worth Paschal,71.21,120.2,,113.4,233.6,Single-ply,SD,M
Boys,75,DQ,Noah Villacana,Fort Worth Paschal,68.4,,,,,Single-ply,SBD,M
Boys,82.5,1,Santos Bazan,Fort Worth Western Hills,76.11,151.95,90.72,170.1,412.77,Single-ply,SBD,M
Boys,82.5,2,Ulises Moreno,Fort Worth Paschal,80.47,183.7,83.91,138.35,405.97,Single-ply,SBD,M
Boys,82.5,3,Jake Valdez,Fort Worth Arlington Heights,78.11,142.88,92.99,136.08,371.95,Single-ply,SBD,M
Boys,82.5,4,Julian Ramos,Fort Worth Arlington Heights,75.48,117.93,77.11,142.88,337.93,Single-ply,SBD,M
Boys,82.5,5,Reagan Sullivan,Fort Worth Arlington Heights,77.84,102.06,72.57,113.4,288.03,Single-ply,SBD,M
Boys,82.5,6,Juan Galvan,Fort Worth Arlington Heights,76.2,90.72,58.97,117.93,267.62,Single-ply,SBD,M
Boys,82.5,DQ,James Herd,Fort Worth Arlington Heights,79.11,,65.77,108.86,,Single-ply,SBD,M
Boys,82.5,DQ,Eduardo Hernandez,Fort Worth Paschal,77.29,124.74,,161.03,,Single-ply,SBD,M
Boys,90,1,Brendan Buggage,Fort Worth Western Hills,86.55,158.76,115.67,183.7,458.13,Single-ply,SBD,M
Boys,90,2,Taylor Hudspeth,Fort Worth Arlington Heights,83.19,174.63,104.33,158.76,437.72,Single-ply,SBD,M
Boys,90,3,Rayvon Jones,Fort Worth Arlington Heights,87,102.06,61.23,151.95,315.25,Single-ply,SBD,M
Boys,90,DQ,Walter Gobber,Fort Worth Paschal,85.46,,,,,Single-ply,SBD,M
Boys,90,DQ,Tre Lynn Wormley,Fort Worth Paschal,88,,,,,Single-ply,SBD,M
Boys,100,1,Raylon Jones,Fort Worth Arlington Heights,91.81,190.51,133.81,215.46,539.77,Single-ply,SBD,M
Boys,100,2,Kerry Coleman,Fort Worth Arlington Heights,96.71,185.97,113.4,158.76,458.13,Single-ply,SBD,M
Boys,100,3,Mark Brown,Fort Worth Arlington Heights,95.25,145.15,111.13,185.97,442.25,Single-ply,SBD,M
Boys,100,4,Ezekiel Kealoha,Fort Worth Arlington Heights,92.17,165.56,104.33,163.29,433.18,Single-ply,SBD,M
Boys,100,5,Julian Zavala,Fort Worth Arlington Heights,97.79,136.08,92.99,158.76,387.82,Single-ply,SBD,M
Boys,100,6,Emmanuel Reyes,Fort Worth Arlington Heights,91.08,108.86,79.38,136.08,324.32,Single-ply,SBD,M
Boys,100,DQ,Henry Graves,Fort Worth Arlington Heights,91.53,136.08,,154.22,,Single-ply,SBD,M
Boys,110,1,Corban James,Fort Worth Arlington Heights,104.69,272.16,156.49,238.14,666.78,Single-ply,SBD,M
Boys,110,2,Jordan Reed,Fort Worth Arlington Heights,101.06,158.76,122.47,138.35,419.57,Single-ply,SBD,M
Boys,110,DQ,Parker Dubose,Fort Worth Paschal,106.96,,,,,Single-ply,SBD,M
Boys,125,1,Ares Fritzenwallner,Fort Worth Arlington Heights,115.21,183.7,113.4,181.44,478.54,Single-ply,SBD,M
Boys,125,2,Carlos Zamora,Fort Worth Western Hills,112.85,174.63,115.67,147.42,437.72,Single-ply,SBD,M
Boys,125,3,Palmer Moynihan,Fort Worth Arlington Heights,111.58,136.08,81.65,158.76,376.48,Single-ply,SBD,M
Boys,125+,1,Zach Perry,Fort Worth Arlington Heights,128.09,249.48,127.01,213.19,589.67,Single-ply,SBD,M
Boys,125+,2,Manuel Huerta,Fort Worth Arlington Heights,149.23,165.56,90.72,158.76,415.04,Single-ply,SBD,M
Boys,125+,3,Josh Reyes,Fort Worth Western Hills,149.96,165.56,61.23,165.56,392.36,Single-ply,SBD,M
Boys,125+,4,Tony Johnson,Fort Worth Paschal,134.81,163.29,90.72,136.08,390.09,Single-ply,SBD,M
Boys,125+,DQ,Larry Raven,Fort Worth Arlington Heights,135.17,215.46,,183.7,,Single-ply,SBD,M
Boys,125+,DQ,Dylan Lopez,Fort Worth Paschal,129.55,226.8,102.06,,,Single-ply,SBD,M
