Place,Name,CyrillicName,Sex,WeightClassKg,Division,BirthYear,Age,BodyweightKg,Squat1Kg,Squat2Kg,Squat3Kg,Squat4Kg,Best3SquatKg,Bench1Kg,Bench2Kg,Bench3Kg,Bench4Kg,Best3BenchKg,Deadlift1Kg,Deadlift2Kg,Deadlift3Kg,Deadlift4Kg,Best3DeadliftKg,TotalKg,Event,Equipment
1,Dmitriy Sheremet,Дмитрий Шеремет,M,82.5,Pro Juniors 16 - 17,2000,17,81.2,145,-157.5,-162.5,,145,95,105,112.5,,112.5,135,155,-185,,155,412.5,SBD,Wraps
DQ,Pavel Askerov,Павел Аскеров,M,82.5,Pro Juniors 16 - 17,2000,17,79.9,-110,-120,-130,,,,,,,,,,,,,,SBD,Wraps
1,Danil Kurzantsev,Данил Курзанцев,M,90,Pro Open,1985,32,87.1,250,265,280,,280,155,162.5,167.5,,167.5,250,-302.5,302.5,,302.5,750,SBD,Wraps
DQ,Aleksandr Shabanov,Александр Шабанов,M,90,Pro Open,1992,25,89.7,-280,-300,-300,,,,,,,,,,,,,,SBD,Wraps
DQ,Evgeniy Kozlov,Евгений Козлов,M,90,Pro Masters 40 - 44,1974,43,89,-230,-245,-250,,,,,,,,,,,,,,SBD,Wraps
1,Sergey Luzin,Сергей Лузин,M,100,Pro Open,1991,26,96.2,230,-235,240,,240,150,160,165,,165,-240,240,250,,250,655,SBD,Wraps
1,Vladimir Tarasov,Владимир Тарасов,M,110,Pro Open,1991,26,108.8,335,345,-355,,345,190,-200,200,,200,270,-285,-285,,270,815,SBD,Wraps
2,Dmitriy Tretyakov,Дмитрий Третьяков,M,110,Pro Open,1978,39,109.7,-240,245,-255,,245,170,177.5,,,177.5,220,232.5,-240,,232.5,655,SBD,Wraps
1,Fedor Ovchinnikov,Федор Овчинников,M,125,Pro Masters 45 - 49,1971,46,113.6,250,270,290,,290,170,180,-190,,180,250,300,320,,320,790,SBD,Wraps
1,Aleksandr Raevskiy,Александр Раевский,M,82.5,Pro Open,1983,34,79.8,220,230,240,,240,,,,,,,,,,,240,S,Wraps
DQ,Andrey Shchur,Андрей Щур,M,82.5,Pro Open,1973,44,81.2,-220,-240,-240,,,,,,,,,,,,,,S,Wraps
1,Igor Grachev,Игорь Грачев,M,110,Pro Masters 45 - 49,1968,49,110,255,272.5,-285,,272.5,,,,,,,,,,,272.5,S,Wraps
1,Elisey Belets,Елисей Белец,M,110,Pro Open,1986,31,110,325,-342.5,-342.5,,325,,,,,,,,,,,325,S,Multi-ply
1,Aleksandr Raevskiy,Александр Раевский,M,82.5,Pro Open,1983,34,79.8,,,,,,170,177.5,180,,180,,,,,,180,B,Raw
2,Oleg Kosterenkov,Олег Костеренков,M,82.5,Pro Open,1992,25,81.5,,,,,,-115,120,-125,,120,,,,,,120,B,Raw
1,Andrey Shchur,Андрей Щур,M,82.5,Pro Masters 40 - 44,1973,44,81.2,,,,,,160,165,-172.5,,165,,,,,,165,B,Raw
1,Roman Pasko,Роман Паско,M,82.5,Pro Masters 45 - 49,1972,45,81.3,,,,,,157.5,-165,170,,170,,,,,,170,B,Raw
1,Egor Kolesnikov,Егор Колесников,M,90,Pro Juniors 20 - 23,1994,23,87.9,,,,,,160,170,-180,,170,,,,,,170,B,Raw
1,Aleksandr Kichigin,Александр Кичигин,M,90,Pro Open,1989,27,89.1,,,,,,200,-207.5,-207.5,,200,,,,,,200,B,Raw
2,Aleksandr Shabanov,Александр Шабанов,M,90,Pro Open,1992,25,89.7,,,,,,165,-175,-175,,165,,,,,,165,B,Raw
1,Aleksandr Lebed,Александр Лебедь,M,100,Pro Open,1989,28,100,,,,,,202.5,207.5,-212.5,,207.5,,,,,,207.5,B,Raw
2,Mikhail Konovalov,Михаил Коновалов,M,100,Pro Open,1992,25,99.8,,,,,,190,200,-215,,200,,,,,,200,B,Raw
3,Maksim Keligov,Максим Келигов,M,100,Pro Open,1988,29,98.5,,,,,,180,190,195,,195,,,,,,195,B,Raw
4,Sergey Akolzin,Сергей Акользин,M,100,Pro Open,1984,33,99.3,,,,,,180,-190,-190,,180,,,,,,180,B,Raw
5,Vladimir Protsenko,Владимир Проценко,M,100,Pro Open,1989,27,98.65,,,,,,170,-180,-190,,170,,,,,,170,B,Raw
1,Dmitriy Korchagin,Дмитрий Корчагин,M,100,Pro Masters 45 - 49,1972,45,98.7,,,,,,165,170,-180,,170,,,,,,170,B,Raw
1,Evgeniy Beletskiy,Евгений Белецкий,M,110,Pro Open,1964,53,105.6,,,,,,215,-227.5,227.5,,227.5,,,,,,227.5,B,Raw
2,Evgeniy Eroshenko,Евгений Ерошенко,M,110,Pro Open,1987,30,105.7,,,,,,177.5,185,-190,,185,,,,,,185,B,Raw
3,Dmitriy Tretyakov,Дмитрий Третьяков,M,110,Pro Open,1978,39,109.7,,,,,,175,-180,-185,,175,,,,,,175,B,Raw
DQ,Sergey Kasimov,Сергей Касимов,M,110,Pro Open,1989,28,107.7,,,,,,-197.5,-197.5,-197.5,,,,,,,,,B,Raw
1,Mikhail Grechukha,Михаил Гречуха,M,110,Pro Masters 45 - 49,1968,49,104.4,,,,,,200,207.5,212.5,,212.5,,,,,,212.5,B,Raw
2,German Veledeev,Герман Веледеев,M,110,Pro Masters 45 - 49,1969,48,102.5,,,,,,-170,170,-185,,170,,,,,,170,B,Raw
1,Evgeniy Beletskiy,Евгений Белецкий,M,110,Pro Masters 50 - 54,1964,53,105.6,,,,,,215,-227.5,227.5,,227.5,,,,,,227.5,B,Raw
1,Oleg Yaupov,Олег Яупов,M,125,Pro Open,1980,36,110.2,,,,,,210,-217.5,-217.5,,210,,,,,,210,B,Raw
1,Ramig Nuruev,Рамиг Нуруев,M,140,Pro Open,1984,32,132,,,,,,301,-310,,,301,,,,,,301,B,Multi-ply
1,Sergey Aksenov,Сергей Аксенов,M,82.5,Pro Juniors 20 - 23,1996,21,81.2,,,,,,,,,,,282.5,292.5,302.5,,302.5,302.5,D,Raw
1,Sergey Aksenov,Сергей Аксенов,M,82.5,Pro Open,1996,21,81.2,,,,,,,,,,,282.5,292.5,302.5,,302.5,302.5,D,Raw
2,Aleksandr Raevskiy,Александр Раевский,M,82.5,Pro Open,1983,34,79.8,,,,,,,,,,,240,250,255,,255,255,D,Raw
1,Nikita Krasnobryzhiy,Никита Краснобрыжий,M,90,Pro Juniors 20 - 23,1996,21,86.4,,,,,,,,,,,-200,202.5,-205,,202.5,202.5,D,Raw
1,Dmitriy Rupasov,Дмитрий Рупасов,M,90,Pro Open,1991,26,89.5,,,,,,,,,,,265,275,-280,,275,275,D,Raw
2,Aleksandr Shabanov,Александр Шабанов,M,90,Pro Open,1992,25,89.7,,,,,,,,,,,240,250,-265,,250,250,D,Raw
3,Grigoriy Fisenko,Григорий Фисенко,M,90,Pro Open,1988,29,86.7,,,,,,,,,,,-220,230,240,,240,240,D,Raw
1,Evgeniy Kozlov,Евгений Козлов,M,90,Pro Masters 40 - 44,1974,43,89,,,,,,,,,,,270,-290,290,,290,290,D,Raw
1,Vladislav Ignatev,Владислав Игнатьев,M,100,Pro Juniors 20 - 23,1997,20,96.8,,,,,,,,,,,230,240,-250,,240,240,D,Raw
1,Igor Godovanyuk,Игорь Годованюк,M,100,Pro Open,1982,34,98.4,,,,,,,,,,,340,360,-365.5,,360,360,D,Raw
1,Evgeniy Beletskiy,Евгений Белецкий,M,110,Pro Masters 50 - 54,1964,53,105.6,,,,,,,,,,,-230,230,,,230,230,D,Raw
1,Filipp Mikalinskiy,Филипп Микалинский,M,125,Pro Juniors 20 - 23,1996,21,114.4,,,,,,,,,,,240,260,265,,265,265,D,Raw
1,Sergey Kiselev,Сергей Киселев,M,125,Pro Open,1979,38,113.4,,,,,,,,,,,-280,280,-295,,280,280,D,Raw
DQ,Oleg Molochko,Олег Молочко,M,125,Pro Masters 40 - 44,1976,41,112.6,,,,,,,,,,,-240,-240,-240,,,,D,Raw
1,Ekaterina Kriventsova,Екатерина Кривенцова,F,56,Amateur Juniors 20 - 23,1994,23,53.6,100,105,-110,,105,-45,-47.5,47.5,,47.5,-105,107.5,-110,,107.5,260,SBD,Raw
1,Dmitriy Kabakov,Дмитрий Кабаков,M,67.5,Amateur Juniors 13 - 15,2002,14,65.2,150,155,-160,,155,80,85,-92.5,,85,150,160,-170,,160,400,SBD,Raw
1,Sergey Shemelin,Сергей Шемелин,M,67.5,Amateur Masters 60 - 64,1953,64,65.3,75,80,-90,,80,65,70,-72.5,,70,110,120,125,,125,275,SBD,Raw
DQ,Pavel Askerov,Павел Аскеров,M,82.5,Amateur Juniors 16 - 17,2000,17,79.9,-110,,,,,,,,,,,,,,,,SBD,Raw
DQ,Vladislav Sanin,Владислав Санин,M,125,Amateur Open,1992,25,112.6,-260,-260,-260,,,,,,,,,,,,,,SBD,Raw
1,Vyacheslav Nemolyakin,Вячеслав Немолякин,M,56,Amateur Juniors 13 - 15,2003,13,55.6,60,-70,70,,70,40,-50,-50,,40,-80,80,95,,95,205,SBD,Wraps
1,Aleksey Komarov,Алексей Комаров,M,67.5,Amateur Juniors 18 - 19,1998,19,62.85,165,-180,190,,190,85,-95,-95,,85,-150,150,-160,,150,425,SBD,Wraps
1,Kirill Akushevich,Кирилл Акушевич,M,82.5,Amateur Juniors 16 - 17,2000,16,77.3,120,130,140,,140,85,90,-92.5,,90,-110,140,-150,,140,370,SBD,Wraps
1,Nikita Kubasov,Никита Кубасов,M,82.5,Amateur Open,1995,22,81.4,180,195,205,,205,140,-150,-150,,140,215,230,237.5,,237.5,582.5,SBD,Wraps
1,Elena Paneva,Елена Панева,F,52,Amateur Open,1992,25,51.1,95,100,-105,,100,47.5,52.5,-55,,52.5,95,-105,-105,,95,247.5,SBD,Single-ply
1,Ekaterina Cherdantseva,Екатерина Черданцева,F,56,Amateur Juniors 16 - 17,2000,17,55.4,-120,120,130,,130,-55,60,-70,,60,110,120,125,,125,315,SBD,Single-ply
1,Lyubov Pugach,Любовь Пугач,M,67.5,Amateur Open,1987,30,66.5,-70,70,-80,,70,-40,-40,40,,40,-80,80,-90,,80,190,SBD,Single-ply
DQ,Aleksandr Busov,Александр Бусов,M,75,Amateur Open,1985,32,75,-220,225,235,,235,140,147.5,-155,,147.5,-220,-227.5,-227.5,,,,SBD,Single-ply
1,Grigoriy Ovchinnikov,Григорий Овчинников,M,82.5,Amateur Open,1982,35,80.7,220,-230,230,,230,150,160,-170,,160,220,-225,-227.5,,220,610,SBD,Single-ply
DQ,Viktoriya Yakushevich,Виктория Якушевич,F,75,Amateur Open,1986,31,71.6,,,,,,-100,-100,-100,,,,,,,,,B,Single-ply
1,Denis Kuznetsov,Денис Кузнецов,M,82.5,Amateur Open,1989,28,81.2,,,,,,130,140,-147.5,,140,,,,,,140,B,Single-ply
1,Aleksandra Kovalenko,Александра Коваленко,F,48,Amateur Open,1981,36,46.2,,,,,,47.5,50,-52.5,,50,,,,,,50,B,Raw
1,Mariya Novikova,Мария Новикова,F,52,Amateur Open,1989,27,51.6,,,,,,40,45,-50,,45,,,,,,45,B,Raw
1,Galina Kligunova,Галина Клигунова,F,56,Amateur Open,1986,31,54.2,,,,,,47.5,52.5,-55,,52.5,,,,,,52.5,B,Raw
1,Anastasia Pavlova,Анастасія Павлова,F,60,Amateur Open,1985,32,58.9,,,,,,47.5,52.5,55,,55,,,,,,55,B,Raw
2,Ekaterina Semenikhina,Екатерина Семенихина,F,60,Amateur Open,1987,29,58,,,,,,47.5,50,-52.5,,50,,,,,,50,B,Raw
DQ,Aleksandra Perelygina,Александра Перелыгина,F,60,Amateur Open,1988,29,59,,,,,,-45,-47.5,-47.5,,,,,,,,,B,Raw
1,Nadezhda Starynina,Надежда Старынина,F,60,Amateur Masters 40 - 44,1977,40,59.9,,,,,,35,37.5,-40,,37.5,,,,,,37.5,B,Raw
1,Elvira Mukina,Эльвира Мукина,F,67.5,Amateur Juniors 20 - 23,1994,23,67,,,,,,55,-62.5,-62.5,,55,,,,,,55,B,Raw
1,Polina Boyarovo,Полина Боярово,F,67.5,Amateur Open,1991,26,67,,,,,,67.5,70,-75,,70,,,,,,70,B,Raw
1,Kirill Shaposhnikov,Кирилл Шапошников,M,52,Amateur Juniors 18 - 19,1998,19,51,,,,,,95,102.5,-105,,102.5,,,,,,102.5,B,Raw
1,Ivan Demchenko,Иван Демченко,M,56,Amateur Juniors 18 - 19,1998,19,55,,,,,,100,107.5,-112.5,,107.5,,,,,,107.5,B,Raw
1,Viktor Mironenko,Виктор Мироненко,M,67.5,Amateur Open,1990,26,65.4,,,,,,115,125,-130,,125,,,,,,125,B,Raw
1,Aleksandr Kotlyarskiy,Александр Котлярский,M,75,Amateur Juniors 13 - 15,2001,15,72.5,,,,,,140,150,155,-160,155,,,,,,155,B,Raw
2,Mikhail Vyunov,Михаил Вьюнов,M,75,Amateur Juniors 13 - 15,2002,15,73.3,,,,,,80,87.5,92.5,,92.5,,,,,,92.5,B,Raw
1,Aleksandr Kosenko,Александр Косенко,M,75,Amateur Open,1987,30,73.3,,,,,,130,135,140,,140,,,,,,140,B,Raw
2,Valentin Gruzdev,Валентин Груздев,M,75,Amateur Open,1990,27,74.1,,,,,,127.5,-130,-130,,127.5,,,,,,127.5,B,Raw
DQ,Eduard Orudzhaliev,Эдуард Оруджалиев,M,75,Amateur Open,1987,30,72.3,,,,,,-130,-130,,,,,,,,,,B,Raw
1,Aleksandr Kovganov,Александр Ковганов,M,82.5,Amateur Juniors 20 - 23,1994,22,78.8,,,,,,130,-132.5,132.5,,132.5,,,,,,132.5,B,Raw
1,Denis Loparev,Денис Лопарев,M,82.5,Amateur Open,1986,31,80.2,,,,,,147.5,-150,-150,,147.5,,,,,,147.5,B,Raw
2,Ilya Kovalenko,Илья Коваленко,M,82.5,Amateur Open,1991,26,81.9,,,,,,135,145,-150,,145,,,,,,145,B,Raw
1,Andrey Elenskiy,Андрей Еленский,M,82.5,Amateur Masters 40 - 44,1972,44,82.4,,,,,,105,110,115,,115,,,,,,115,B,Raw
1,Yuriy Sharipov,Юрий Шарипов,M,90,Amateur Open,1992,25,86.3,,,,,,140,152.5,160,,160,,,,,,160,B,Raw
2,Aleksey Shanin,Алексей Шанин,M,90,Amateur Open,1974,42,90,,,,,,135,140,-145,,140,,,,,,140,B,Raw
1,Rafik Ogannisyan,Рафик Оганнисян,M,100,Amateur Open,1980,36,99.8,,,,,,185,192.5,-195,,192.5,,,,,,192.5,B,Raw
2,Aleksandr Spiridonov,Александр Спиридонов,M,100,Amateur Open,1989,28,94.7,,,,,,170,180,-185,,180,,,,,,180,B,Raw
3,Nikita Morozov,Никита Морозов,M,100,Amateur Open,1988,29,99.7,,,,,,150,-162.5,-162.5,,150,,,,,,150,B,Raw
1,Ivan Klimenko,Иван Клименко,M,110,Amateur Open,1980,36,100.9,,,,,,150,160,170,,170,,,,,,170,B,Raw
2,Sergey Donilov,Сергей Донилов,M,110,Amateur Open,1982,35,108.3,,,,,,160,167.5,-170,,167.5,,,,,,167.5,B,Raw
3,Vyacheslav Kirgizov,Вячеслав Киргизов,M,110,Amateur Open,1989,28,108.8,,,,,,157.5,167.5,-172.5,,167.5,,,,,,167.5,B,Raw
4,Aleksey Khlon,Алексей Хлонь,M,110,Amateur Open,1976,41,105.4,,,,,,150,160,165,,165,,,,,,165,B,Raw
5,Denis Migal,Денис Мигаль,M,110,Amateur Open,1986,31,108.2,,,,,,100,-117.5,-117.5,,100,,,,,,100,B,Raw
1,Aleksey Khlon,Алексей Хлонь,M,110,Amateur Masters 40 - 44,1976,41,105.4,,,,,,150,160,165,,165,,,,,,165,B,Raw
DQ,Stanislav Sidorenko,Станислав Сидоренко,M,140,Amateur Open,1986,31,131.2,,,,,,-160,,,,,,,,,,,B,Raw
1,Sergey Shishkov,Сергей Шишков,M,140,Amateur Masters 60 - 64,1956,61,125.7,,,,,,-100,100,110,,110,,,,,,110,B,Raw
1,Yuliya Koval,Юлия Коваль,F,48,Amateur Open,1990,26,46.2,,,,,,,,,,,100,107.5,112.5,,112.5,112.5,D,Raw
2,Svetlana Pelikh,Светлана Пелих,F,48,Amateur Open,1990,27,45.2,,,,,,,,,,,82.5,87.5,92.5,,92.5,92.5,D,Raw
1,Irina Gegelskaya,Ирина Гегельская,F,56,Amateur Open,1983,34,55.9,,,,,,,,,,,115,122.5,125,,125,125,D,Raw
1,Ekaterina Semenikhina,Екатерина Семенихина,F,60,Amateur Open,1987,29,58,,,,,,,,,,,100,110,-117.5,,110,110,D,Raw
1,Ekaterina Rybalchenko,Екатерина Рыбальченко,F,67.5,Amateur Juniors 20 - 23,1994,23,65.2,,,,,,,,,,,100,105,-115,,105,105,D,Raw
1,Aleksandr Busov,Александр Бусов,M,75,Amateur Open,1985,32,75,,,,,,,,,,,190,200,217.5,,217.5,217.5,D,Raw
2,Aleksey Kotov,Алексей Котов,M,75,Amateur Open,1987,30,73.5,,,,,,,,,,,205,210,215,,215,215,D,Raw
3,Valentin Gruzdev,Валентин Груздев,M,75,Amateur Open,1990,27,74.1,,,,,,,,,,,-195,197.5,202.5,,202.5,202.5,D,Raw
1,Leonid Bukhanov,Леонид Буханов,M,82.5,Amateur Open,1985,32,79.5,,,,,,,,,,,225,235,245,,245,245,D,Raw
2,Sergey Lebedev,Сергей Лебедев,M,82.5,Amateur Open,1990,27,81.2,,,,,,,,,,,-220,-230,230,,230,230,D,Raw
3,Denis Loparev,Денис Лопарев,M,82.5,Amateur Open,1986,31,80.2,,,,,,,,,,,165,175,185,,185,185,D,Raw
4,Maksim Son,Максим Сон,M,82.5,Amateur Open,1988,29,80.9,,,,,,,,,,,175,-185,-190,,175,175,D,Raw
1,Konstantin Kamelin,Константин Камелин,M,90,Amateur Open,1986,31,89.6,,,,,,,,,,,265,280,-295,,280,280,D,Raw
2,Pavel Kravtsov,Павел Кравцов,M,90,Amateur Open,1991,26,87.9,,,,,,,,,,,165,175,-195,,175,175,D,Raw
DQ,Vadim Rukavishnikov,Вадим Рукавишников,M,90,Amateur Open,1983,34,88,,,,,,,,,,,-170,-195,-195,,,,D,Raw
1,Roman Minchenkov,Роман Минченков,M,100,Amateur Open,1986,31,97.6,,,,,,,,,,,280,-290,-302.5,,280,280,D,Raw
2,Aleksey Polyakov,Алексей Поляков,M,100,Amateur Open,1979,38,95.3,,,,,,,,,,,-230,230,-240,,230,230,D,Raw
1,Yan Kandaurov,Ян Кандауров,M,110,Amateur Juniors 16 - 17,2001,16,104.2,,,,,,,,,,,150,167.5,175,,175,175,D,Raw
1,Dmitriy Nechesov,Дмитрий Нечесов,M,110,Amateur Open,1989,28,104.1,,,,,,,,,,,240,260,-275,,260,260,D,Raw
2,Rafik Ogannisyan,Рафик Оганнисян,M,110,Amateur Open,1980,36,103,,,,,,,,,,,230,240,-250,,240,240,D,Raw
3,Sergey Danilov,Сергей Данилов,M,110,Amateur Open,1982,35,108.3,,,,,,,,,,,220,240,,,240,240,D,Raw
1,Andrey Denish,Андрей Дениш,M,110,Amateur Masters 40 - 44,1977,40,105.4,,,,,,,,,,,190,-207.5,207.5,,207.5,207.5,D,Raw
1,Vladislav Sanin,Владислав Санин,M,125,Amateur Open,1992,25,112.6,,,,,,,,,,,300,-310,-310,,300,300,D,Raw
1,Denis Kuznetsov,Денис Кузнецов,M,82.5,Amateur Open,1989,28,81.2,,,,,,,,,,,180,195,210,,210,210,D,Single-ply
