Division,WeightClassKg,Name,State,Best3SquatKg,Squat4Kg,Best3BenchKg,Bench4Kg,Best3DeadliftKg,Deadlift4Kg,TotalKg,BodyweightKg,Age,Sex,Event,Equipment,Place
Amateur Open,52,Jen Hazzard,NY,106.59,,61.23,,145.15,,312.98,51.66,32,F,SBD,Wraps,1
Amateur Open,60,Maya Gelernter,NY,138.35,,49.9,,142.88,,331.12,58.97,26,F,SBD,Wraps,1
Amateur Open,60,Oksana Yarmolyak,NY,113.4,,52.16,,142.88,145.15,308.44,58.42,29,F,SBD,Wraps,2
Amateur Open,67.5,Amanda Falsone,NY,154.22,,74.84,,185.97,,415.04,66.86,22,F,SBD,Wraps,1
Amateur Open,82.5,Patricia Baker,NY,117.93,145.15,68.04,,142.88,,328.85,75.52,30,F,SBD,Wraps,1
Amateur SubMasters(33-39),67.5,Catharine Novick,NY,102.06,,54.43,,122.47,,278.96,67.13,38,F,SBD,Wraps,1
Amateur Masters(60-64),82.5,Carol Clarke,NY,81.65,,56.7,,117.93,,256.28,79.83,63,F,SBD,Wraps,1
Pro Open,60,Victoria Krog,FL,111.13,,61.23,,149.69,,322.05,57.29,24,F,SBD,Wraps,1
Amateur Teen (Up to 13),56,Brock Santacroce,NY,74.84,79.38,40.82,,83.91,88.45,199.58,53.3,13,M,SBD,Wraps,1
Amateur Teen(18-19),82.5,Nathan Lemoine,RI,154.22,,86.18,,183.7,,424.11,78.47,18,M,SBD,Wraps,1
Amateur Teen(18-19),110,Chris Jones #7,NY,226.8,,147.42,,247.21,,621.42,106.37,19,M,SBD,Wraps,1
Amateur Juniors(20-23),100,Joshua Wilcox,NY,226.8,,154.22,,258.55,,639.57,96.12,20,M,SBD,Wraps,1
Amateur Open,75,Brian Magee,NY,147.42,,97.52,,195.04,,439.98,72.3,32,M,SBD,Wraps,1
Amateur Open,82.5,Cory Russell,NY,249.48,265.35,131.54,,226.8,,607.81,82.1,29,M,SBD,Wraps,1
Amateur Open,82.5,Brandon Clark,FL,158.76,,102.06,,208.65,,469.47,78.47,34,M,SBD,Wraps,2
Amateur Open,82.5,Juan Collazo,NY,145.15,,102.06,,161.03,,408.23,82.33,81,M,SBD,Wraps,3
Amateur Open,90,Tom Ravesi,NY,226.8,,142.88,,240.4,,610.08,86.59,48,M,SBD,Wraps,1
Amateur Open,90,David Scorzelli,NY,201.85,,115.67,,226.8,,544.31,88.99,23,M,SBD,Wraps,2
Amateur Open,125,Matt Sohmer,NY,381.02,,158.76,,362.87,,902.65,119.2,24,M,SBD,Raw,1
Amateur Open,125,Matt Apenowich,NY,210.92,,188.24,,242.67,,641.83,121.56,28,M,SBD,Wraps,2
Amateur Open,125,Brian Baker,NY,183.7,,115.67,,233.6,,532.97,112.04,32,M,SBD,Wraps,3
Amateur Open,140,Sean Shea,NY,294.84,,179.17,,306.17,,780.18,136.08,38,M,SBD,Wraps,1
Amateur SubMasters(33-39),90,Josh Romero,NY,165.56,,102.06,,215.46,,483.08,87.77,38,M,SBD,Wraps,1
Amateur SubMasters(33-39),90,Jake Karker,NY,176.9,,102.06,,204.12,,483.08,89.99,34,M,SBD,Wraps,2
Amateur SubMasters(33-39),110,William Till,NY,238.14,,174.63,,235.87,,648.64,108.36,38,M,SBD,Wraps,1
Amateur SubMasters(33-39),140,Sean Shea,NY,294.84,,179.17,,306.17,,780.18,136.08,38,M,SBD,Wraps,1
Amateur Masters(40-44),82.5,Donald Edson,NY,197.31,,147.42,,199.58,,544.31,81.28,44,M,SBD,Wraps,1
Amateur Masters(40-44),90,Keith Thompson,NY,165.56,,145.15,,172.37,,483.08,89.09,44,M,SBD,Wraps,1
Amateur Masters(45-49),82.5,Matthew Gibbons,NY,208.65,,113.4,,229.06,,551.11,82.01,45,M,SBD,Wraps,1
Amateur Masters(80+),82.5,Juan Collazo,NY,145.15,,102.06,,161.03,,408.23,82.33,81,M,SBD,Wraps,1
Amateur Juniors(20-23),100,Reed Laakso,NH,326.59,,170.1,,235.87,,732.55,96.07,21,M,SBD,Multi-ply,1
Pro Open,82.5,Cody Bronson,NY,217.72,,127.01,,240.4,,585.13,80.97,26,M,SBD,Wraps,1
Pro Masters(55-59),100,Damon Senaha,HI,170.1,,115.67,,226.8,,512.56,99.38,56,M,SBD,Wraps,1
Pro Police,100,Damon Senaha,HI,170.1,,115.67,,226.8,,512.56,99.38,56,M,SBD,Wraps,1
Amateur Open,75,Jeffrey Willis,NY,,,140.61,145.15,,,140.61,73.12,52,M,B,Raw,1
Amateur Open,110,Robert Young,NY,,,204.12,,,,204.12,107.95,37,M,B,Raw,1
Amateur SubMasters(33-39),110,Robert Young,NY,,,204.12,,,,204.12,107.95,37,M,B,Raw,1
Amateur Masters(40-44),125,Jacob Bigelow,NY,,,154.22,,,,154.22,111.13,42,M,B,Raw,1
Amateur Masters(50-54),75,Jeffrey Willis,NY,,,140.61,145.15,,,140.61,73.12,52,M,B,Raw,1
Amateur Masters(50-54),140,Todd Laughlin,NY,,,167.83,,,,167.83,126.96,50,M,B,Raw,1
Amateur Police,75,Jeffrey Willis,NY,,,140.61,145.15,,,140.61,73.12,52,M,B,Raw,1
Amateur Police,90,Mike Randle,NY,,,136.08,,,,136.08,88,31,M,B,Raw,1
Amateur Police,110,Robert Young,NY,,,204.12,,,,204.12,107.95,37,M,B,Raw,1
Amateur Police,125,Brandon Kietlinski,NY,,,192.78,,,,192.78,112.63,32,M,B,Raw,1
Pro Open,125,James Farina,NY,,,226.8,231.33,229.06,,455.86,120.2,39,M,BD,Raw,1
Pro SubMasters(33-39),125,James Farina,NY,,,226.8,231.33,229.06,,455.86,120.2,39,M,BD,Raw,1
Amateur Masters(80+),75,Jim Holman,NY,,,,,113.4,,113.4,68.04,82,M,D,Raw,1
Pro Open,75,Travis Russo,NY,226.8,,,,233.6,,460.4,74.98,25,M,SD,Wraps,1
