Division,WeightClassKg,Place,Name,Team,BodyweightKg,Best3SquatKg,Best3BenchKg,Best3DeadliftKg,TotalKg,Equipment,Event,Sex
Boys,52,1,Diego Gallegos,Alvin,51.48,165.56,106.59,181.44,453.59,Single-ply,SBD,M
Boys,52,2,Nick Sanchez,Georgetown,50.03,111.13,74.84,127.01,312.98,Single-ply,SBD,M
Boys,52,3,Sergio Huertas,Georgetown,46.86,97.52,61.23,102.06,260.82,Single-ply,SBD,M
Boys,56,1,Rushi Patel,College Station,55.34,167.83,79.38,161.03,408.23,Single-ply,SBD,M
Boys,56,2,Jacob Hanson,College Station A&M; Cons,54.79,154.22,88.45,142.88,385.55,Single-ply,SBD,M
Boys,56,3,Brandon Williams,Pollok Central,54.34,104.33,58.97,111.13,274.42,Single-ply,SBD,M
Boys,60,1,Matthew Longoria,Alvin,56.11,170.1,131.54,181.44,483.08,Single-ply,SBD,M
Boys,60,2,Brendan Alexander,Pollok Central,59.69,131.54,79.38,151.95,362.87,Single-ply,SBD,M
Boys,67.5,1,JT Abshire,College Station,67,204.12,120.2,208.65,532.97,Single-ply,SBD,M
Boys,67.5,2,Jett Ertle,Keller,67,204.12,120.2,208.65,532.97,Single-ply,SBD,M
Boys,67.5,3,Frank Williams,College Station A&M; Cons,67.04,190.51,108.86,204.12,503.49,Single-ply,SBD,M
Boys,67.5,4,Cory Price,College Station A&M; Cons,64.77,127.01,86.18,165.56,378.75,Single-ply,SBD,M
Boys,67.5,DQ,Chad Currie,Coldspring-Oakhurst,66.5,,,,,Single-ply,SBD,M
Boys,75,1,Braden Tschirhart,College Station,72.12,226.8,149.69,204.12,580.6,Single-ply,SBD,M
Boys,75,2,Parker Hay,Trinity,74.75,210.92,117.93,204.12,532.97,Single-ply,SBD,M
Boys,75,3,Eduardo Perez,Georgetown,73.62,206.38,115.67,197.31,519.36,Single-ply,SBD,M
Boys,75,4,Darren Graham,San Antonio Holy Cross,72.57,188.24,115.67,197.31,501.22,Single-ply,SBD,M
Boys,75,5,Chance McGuire,Georgetown,70.44,156.49,90.72,201.85,449.06,Single-ply,SBD,M
Boys,75,6,Rodrigo Valdez,College Station,70.53,136.08,113.4,165.56,415.04,Single-ply,SBD,M
Boys,75,7,Hunter Ross,Pollok Central,70.81,142.88,79.38,158.76,381.02,Single-ply,SBD,M
Boys,75,8,Jacob Bosquez,Pollok Central,74.75,129.27,81.65,165.56,376.48,Single-ply,SBD,M
Boys,75,DQ,David Fulcher,Coldspring-Oakhurst,72.76,185.97,,,,Single-ply,SBD,M
Boys,75,DQ,Eddie Cross,Coldspring-Oakhurst,73.48,,,,,Single-ply,SBD,M
Boys,82.5,1,Robert Adame,San Antonio Holy Cross,80.1,233.6,165.56,226.8,625.96,Single-ply,SBD,M
Boys,82.5,2,Trevor Williams,College Station A&M; Cons,81.42,229.06,136.08,204.12,569.26,Single-ply,SBD,M
Boys,82.5,3,Edgar Hassan,Georgetown,78.74,181.44,104.33,188.24,474,Single-ply,SBD,M
Boys,82.5,DQ,Riley Orn,Coldspring-Oakhurst,81.96,,,,,Single-ply,SBD,M
Boys,90,1,Nathan Ellard,College Station,85.55,263.08,163.29,233.6,659.98,Single-ply,SBD,M
Boys,90,2,Robert Franklin,College Station A&M; Cons,82.33,231.33,158.76,238.14,628.23,Single-ply,SBD,M
Boys,90,3,Mark Wagner,College Station,89.4,226.8,136.08,238.14,601.01,Single-ply,SBD,M
Boys,90,4,Treyvaun Crawford,Trinity,86.18,226.8,124.74,233.6,585.13,Single-ply,SBD,M
Boys,90,5,Ben Wolz,College Station,89.13,226.8,127.01,219.99,573.79,Single-ply,SBD,M
Boys,90,6,Devin Levias,College Station A&M; Cons,84.14,208.65,124.74,222.26,555.65,Single-ply,SBD,M
Boys,90,7,Matthew O'Neil,College Station A&M; Cons,89.49,185.97,97.52,199.58,483.08,Single-ply,SBD,M
Boys,90,8,Colton Harper,College Station A&M; Cons,85.91,158.76,120.2,190.51,469.47,Single-ply,SBD,M
Boys,90,9,Pablo Pachuo,Kerens,84.59,163.29,99.79,185.97,449.06,Single-ply,SBD,M
Boys,100,1,Raymond Casarez,San Antonio Holy Cross,95.84,274.42,142.88,240.4,657.71,Single-ply,SBD,M
Boys,100,2,DeVarion Guyton,College Station A&M; Cons,95.07,235.87,140.61,249.48,625.96,Single-ply,SBD,M
Boys,100,3,Ethan Benestante,Coldspring-Oakhurst,91.08,235.87,136.08,226.8,598.74,Single-ply,SBD,M
Boys,100,4,Davis Wood,College Station,99.02,226.8,142.88,206.38,576.06,Single-ply,SBD,M
Boys,100,5,Truce Tomlinson,College Station,99.25,206.38,108.86,226.8,542.04,Single-ply,SBD,M
Boys,110,1,Austen Flores,San Antonio Holy Cross,107.5,258.55,142.88,274.42,675.85,Single-ply,SBD,M
Boys,110,2,Hunter Bohanan,Georgetown,107.55,254.01,140.61,213.19,607.81,Single-ply,SBD,M
Boys,110,3,Harrison Schuler,Georgetown,107.86,185.97,131.54,183.7,501.22,Single-ply,SBD,M
Boys,125,1,Colton Liles,Kirbyville,112.04,294.84,226.8,258.55,780.18,Single-ply,SBD,M
Boys,125,2,Eli Crawford,Kerens,118.71,281.23,158.76,263.08,703.07,Single-ply,SBD,M
Boys,125,3,Tyler Noles,Georgetown,116.98,226.8,158.76,217.72,603.28,Single-ply,SBD,M
Boys,125,4,Kadin Hammonds,Georgetown,114.31,226.8,154.22,206.38,587.4,Single-ply,SBD,M
Boys,125,5,Gus Pinner,Pollok Central,123.6,210.92,122.47,206.38,539.77,Single-ply,SBD,M
Boys,125+,1,Joseph Peña #1,San Antonio Holy Cross,160.84,410.5,210.92,274.42,895.84,Single-ply,SBD,M
Boys,125+,2,David Hahn,College Station,141.75,281.23,124.74,204.12,610.08,Single-ply,SBD,M
Boys,125+,3,Chase Travis,Georgetown,130.45,226.8,142.88,204.12,573.79,Single-ply,SBD,M
