Division,WeightClassKg,Place,Name,Team,BodyweightKg,Best3SquatKg,Best3BenchKg,Best3DeadliftKg,TotalKg,Equipment,Event,Sex
Boys,52,1,Devon Vela,Edinburg Vela,51.71,113.4,72.57,136.08,322.05,Single-ply,SBD,M
Boys,52,2,Jesus Castillo,Edinburg North,51.71,108.86,72.57,122.47,303.91,Single-ply,SBD,M
Boys,52,3,Matthew Morales,Edinburg Quest College Prep,47.99,102.06,61.23,127.01,290.3,Single-ply,SBD,M
Boys,52,4,Isaiah Trevino,McAllen,51.71,108.86,61.23,111.13,281.23,Single-ply,SBD,M
Boys,52,5,Jackson Littles,Edinburg Idea College Prep,51.62,92.99,52.16,102.06,247.21,Single-ply,SBD,M
Boys,56,1,Alex Mena,Weslaco,52.25,151.95,83.91,161.03,396.89,Single-ply,SBD,M
Boys,56,2,Christian Vega,Edinburg Vela,55.07,136.08,92.99,165.56,394.63,Single-ply,SBD,M
Boys,56,3,Ivan Tafolla,Weslaco,53.71,142.88,65.77,158.76,367.41,Single-ply,SBD,M
Boys,56,4,David Loza,Roma,53.07,138.35,72.57,136.08,347,Single-ply,SBD,M
Boys,56,5,Angel Garcia,Edinburg North,53.98,108.86,77.11,138.35,324.32,Single-ply,SBD,M
Boys,56,6,Josh Del Angel,McAllen Rowe,52.98,113.4,74.84,124.74,312.98,Single-ply,SBD,M
Boys,56,7,Ruben Saenz,McAllen Rowe,54.88,92.99,56.7,102.06,251.74,Single-ply,SBD,M
Boys,60,1,Francisco Guevara,Edinburg Vela,56.61,165.56,102.06,170.1,437.72,Single-ply,SBD,M
Boys,60,2,Demetrio Guerrero,Edinburg,59.78,142.88,117.93,161.03,421.84,Single-ply,SBD,M
Boys,60,3,Austin Weise,McAllen Rowe,59.6,140.61,106.59,172.37,419.57,Single-ply,SBD,M
Boys,60,4,Angel Medellin,Edinburg Vela,58.69,138.35,99.79,147.42,385.55,Single-ply,SBD,M
Boys,60,5,Jesse Cuevas,Edinburg,59.42,102.06,72.57,122.47,297.1,Single-ply,SBD,M
Boys,60,6,Mark Ramirez,Roma,57.52,122.47,54.43,117.93,294.84,Single-ply,SBD,M
Boys,60,7,Cruz Balandrano,Edinburg,58.51,120.2,58.97,115.67,294.84,Single-ply,SBD,M
Boys,60,8,Vicente Balderas,Edinburg North,59.78,68.04,52.16,145.15,265.35,Single-ply,SBD,M
Boys,67.5,1,Francisco Gutierrez,McAllen,67.13,188.24,127.01,190.51,505.76,Single-ply,SBD,M
Boys,67.5,2,Alex Sanchez,Edinburg,65.59,165.56,102.06,183.7,451.32,Single-ply,SBD,M
Boys,67.5,3,Marcelo Pintos,McAllen Memorial,67.13,176.9,106.59,165.56,449.06,Single-ply,SBD,M
Boys,67.5,4,Juan Arredondo,McAllen Memorial,65.68,163.29,102.06,181.44,446.79,Single-ply,SBD,M
Boys,67.5,5,John Gonzalez,Edcouch-Elsa,60.78,183.7,97.52,163.29,444.52,Single-ply,SBD,M
Boys,67.5,6,Tony Barrera,Weslaco,66.59,167.83,92.99,181.44,442.25,Single-ply,SBD,M
Boys,67.5,7,Joshua De Leon,Edinburg Quest College Prep,66.22,170.1,90.72,174.63,435.45,Single-ply,SBD,M
Boys,67.5,8,Antonio Sauceda,Edinburg Economedes,62.78,142.88,113.4,174.63,430.91,Single-ply,SBD,M
Boys,67.5,9,Kiplin Calahan,McAllen,65.59,170.1,97.52,161.03,428.64,Single-ply,SBD,M
Boys,67.5,10,Anthony de Leon,Edinburg Quest College Prep,66.59,136.08,79.38,190.51,405.97,Single-ply,SBD,M
Boys,67.5,11,Jacob Jimenez,Edinburg Quest College Prep,65.5,149.69,83.91,167.83,401.43,Single-ply,SBD,M
Boys,67.5,12,Sam Dominguez,Edinburg Vela,61.42,138.35,86.18,170.1,394.63,Single-ply,SBD,M
Boys,67.5,13,Daniel Lozano,Weslaco,64.95,133.81,97.52,149.69,381.02,Single-ply,SBD,M
Boys,67.5,14,Jaaziel Espinoza,McAllen,67.13,147.42,83.91,138.35,369.68,Single-ply,SBD,M
Boys,67.5,15,Justin Berner,Edinburg North,66.95,127.01,95.25,138.35,360.61,Single-ply,SBD,M
Boys,67.5,16,Lorale Garcia,Edinburg Vela,66.41,129.27,74.84,151.95,356.07,Single-ply,SBD,M
Boys,67.5,DQ,Julio Baustista,Edinburg Economedes,65.32,106.59,,,,Single-ply,SBD,M
Boys,75,1,Jacob Gracia,Weslaco,74.84,244.94,142.88,251.74,639.57,Single-ply,SBD,M
Boys,75,2,Frank Marin,Weslaco,70.94,231.33,124.74,208.65,564.72,Single-ply,SBD,M
Boys,75,3,George Almanza,Edinburg Economedes,73.57,204.12,129.27,183.7,517.1,Single-ply,SBD,M
Boys,75,4,Adalberto Segura,Edinburg,74.21,190.51,120.2,201.85,512.56,Single-ply,SBD,M
Boys,75,5,Mike Medellin,Edinburg Economedes,70.67,185.97,113.4,195.04,494.42,Single-ply,SBD,M
Boys,75,6,Roman Villarreal,McAllen Rowe,73.48,176.9,127.01,183.7,487.61,Single-ply,SBD,M
Boys,75,7,Angel Mendez,Edinburg,74.66,158.76,117.93,210.92,487.61,Single-ply,SBD,M
Boys,75,8,Michael Lopez,Edinburg,68.31,158.76,95.25,179.17,433.18,Single-ply,SBD,M
Boys,75,9,James Champion,Edinburg,74.57,167.83,99.79,158.76,426.38,Single-ply,SBD,M
Boys,75,10,Danny Salazar,Edinburg Economedes,71.94,149.69,92.99,170.1,412.77,Single-ply,SBD,M
Boys,75,11,Diego Perez #1,McAllen,74.66,142.88,102.06,167.83,412.77,Single-ply,SBD,M
Boys,75,12,Julian Hernandez,McAllen Memorial,73.03,142.88,104.33,161.03,408.23,Single-ply,SBD,M
Boys,75,13,Eric Carasco,Edinburg North,72.57,97.52,79.38,138.35,315.25,Single-ply,SBD,M
Boys,75,DQ,Juan Reyes,Edinburg North,72.94,129.27,90.72,,,Single-ply,SBD,M
Boys,75,DQ,Jose Moreno,Roma,70.85,154.22,,,,Single-ply,SBD,M
Boys,82.5,1,Felix Garza,Edinburg Vela,81.83,199.58,147.42,229.06,576.06,Single-ply,SBD,M
Boys,82.5,2,Emmanuel Palomin,Weslaco,80.56,188.24,113.4,190.51,492.15,Single-ply,SBD,M
Boys,82.5,3,Alex Guevas,Edinburg Economedes,82.1,183.7,111.13,195.04,489.88,Single-ply,SBD,M
Boys,82.5,4,Eddie Hinojosa,Edinburg Vela,80.92,170.1,113.4,192.78,476.27,Single-ply,SBD,M
Boys,82.5,5,Joel Barrerra,Roma,81.01,183.7,102.06,183.7,469.47,Single-ply,SBD,M
Boys,82.5,6,Lorenzo Reyes,Edinburg,81.83,163.29,102.06,181.44,446.79,Single-ply,SBD,M
Boys,82.5,7,Adrian Degollado,Edinburg Quest College Prep,75.39,158.76,90.72,188.24,437.72,Single-ply,SBD,M
Boys,82.5,8,Izaiah Valdez,Edinburg North,77.84,154.22,117.93,161.03,433.18,Single-ply,SBD,M
Boys,82.5,9,Dagen Wise Herring,Port Isabel,78.02,161.03,102.06,158.76,421.84,Single-ply,SBD,M
Boys,82.5,10,Andrew Lozano,Edinburg Quest College Prep,75.84,161.03,95.25,161.03,417.3,Single-ply,SBD,M
Boys,82.5,11,Alex Hernandez,Edcouch-Elsa,75.11,156.49,86.18,170.1,412.77,Single-ply,SBD,M
Boys,82.5,12,Mauro Arrieta,Edinburg,78.02,129.27,95.25,161.03,385.55,Single-ply,SBD,M
Boys,82.5,13,Rene Alejo,Edinburg North,78.47,136.08,102.06,145.15,383.29,Single-ply,SBD,M
Boys,82.5,14,Julian Rodriguez,Edinburg Idea College Prep,80.2,122.47,74.84,142.88,340.19,Single-ply,SBD,M
Boys,82.5,DQ,Brandon Flores,Edinburg North,80.1,124.74,,,,Single-ply,SBD,M
Boys,82.5,DQ,Jazaih Escamilla,McAllen Memorial,78.93,,,,,Single-ply,SBD,M
Boys,82.5,DQ,Michael Escamilla,Edinburg,80.74,195.04,142.88,,,Single-ply,SBD,M
Boys,90,1,Elias Munoz,Edcouch-Elsa,85.09,249.48,156.49,249.48,655.44,Single-ply,SBD,M
Boys,90,2,John Ray Martinez,Port Isabel,88.09,242.67,158.76,217.72,619.15,Single-ply,SBD,M
Boys,90,3,Javier Sanchez,Weslaco,86.91,231.33,142.88,229.06,603.28,Single-ply,SBD,M
Boys,90,4,Osvaldo Gomez,Edinburg Economedes,89.54,219.99,147.42,231.33,598.74,Single-ply,SBD,M
Boys,90,5,Juan Cuellar,Edinburg,89.72,219.99,154.22,215.46,589.67,Single-ply,SBD,M
Boys,90,6,Bryan Leal,Weslaco,82.83,204.12,136.08,215.46,555.65,Single-ply,SBD,M
Boys,90,7,Tristian Nino,Edinburg Vela,88.04,219.99,142.88,192.78,555.65,Single-ply,SBD,M
Boys,90,8,Nathan Hernandez,McAllen Rowe,89.63,185.97,147.42,208.65,542.04,Single-ply,SBD,M
Boys,90,9,Darren Earhart,Edinburg Economedes,86.73,188.24,142.88,183.7,514.83,Single-ply,SBD,M
Boys,90,10,Mario Cervantes,McAllen Rowe,89.54,163.29,127.01,208.65,498.95,Single-ply,SBD,M
Boys,90,11,Sanden Yarto,McAllen,86.91,183.7,117.93,195.04,496.68,Single-ply,SBD,M
Boys,90,12,Antonio Rodriguez,McAllen,87.82,192.78,102.06,195.04,489.88,Single-ply,SBD,M
Boys,90,13,Jesse Garza,Edcouch-Elsa,83.37,197.31,117.93,165.56,480.81,Single-ply,SBD,M
Boys,90,14,Timothy Ellington,Edinburg Vela,86.91,154.22,108.86,185.97,449.06,Single-ply,SBD,M
Boys,90,15,Arron Vela,Edinburg Quest College Prep,84.46,163.29,104.33,170.1,437.72,Single-ply,SBD,M
Boys,90,16,Ernesto Tijerina,Edinburg Economedes,88.63,129.27,124.74,174.63,428.64,Single-ply,SBD,M
Boys,90,17,Brandon Vega,Edinburg North,89.81,147.42,102.06,163.29,412.77,Single-ply,SBD,M
Boys,90,18,Dylan Earhart,Edinburg Economedes,84.73,158.76,83.91,165.56,408.23,Single-ply,SBD,M
Boys,90,19,Joseph Acuna,Edinburg North,85.09,142.88,113.4,151.95,408.23,Single-ply,SBD,M
Boys,90,DQ,Raul Aguilera,Edinburg North,89.18,174.63,111.13,,,Single-ply,SBD,M
Boys,100,1,Rafael Montemayor,Edinburg Vela,97.98,238.14,151.95,231.33,621.42,Single-ply,SBD,M
Boys,100,2,Patricio Esquivel,Edinburg Economedes,98.16,242.67,142.88,235.87,621.42,Single-ply,SBD,M
Boys,100,3,Casar Garza,Edinburg Vela,99.16,197.31,161.03,219.99,578.33,Single-ply,SBD,M
Boys,100,4,Noah Cisneros,McAllen Memorial,98.16,215.46,149.69,208.65,573.79,Single-ply,SBD,M
Boys,100,5,Freddy Valdez,Edinburg,99.79,204.12,138.35,226.8,569.26,Single-ply,SBD,M
Boys,100,6,Jaryd Lara,McAllen Memorial,94.62,210.92,142.88,195.04,548.85,Single-ply,SBD,M
Boys,100,7,Nick Bazan,McAllen Memorial,97.25,190.51,151.95,195.04,537.51,Single-ply,SBD,M
Boys,100,8,Marcelino Robledo,Edinburg,98.43,192.78,129.27,183.7,505.76,Single-ply,SBD,M
Boys,100,9,Severo Cruz,Edinburg Economedes,94.08,183.7,102.06,199.58,485.34,Single-ply,SBD,M
Boys,100,10,Sergio Valdez,McAllen Rowe,99.7,161.03,113.4,185.97,460.4,Single-ply,SBD,M
Boys,100,11,Hugo Velásquez,Edinburg Economedes,93.71,158.76,102.06,183.7,444.52,Single-ply,SBD,M
Boys,100,12,Anthony Rodriguez,Edinburg,98.43,158.76,111.13,158.76,428.64,Single-ply,SBD,M
Boys,100,13,Alex Alvarez,Roma,90.99,156.49,95.25,158.76,410.5,Single-ply,SBD,M
Boys,110,1,Gerald Salinas,Edcouch-Elsa,103.69,240.4,161.03,231.33,632.76,Single-ply,SBD,M
Boys,110,2,Juan Diaz,Edinburg,104.6,238.14,142.88,226.8,607.81,Single-ply,SBD,M
Boys,110,3,Joey Carreon,Edinburg Vela,103.96,215.46,151.95,235.87,603.28,Single-ply,SBD,M
Boys,110,4,Norby Fuentes,Edcouch-Elsa,101.7,226.8,163.29,190.51,580.6,Single-ply,SBD,M
Boys,110,5,Alan Hernandez #2,McAllen Rowe,109.23,199.58,145.15,217.72,562.45,Single-ply,SBD,M
Boys,110,6,Oscar Juarez,Edinburg,106.96,183.7,158.76,174.63,517.1,Single-ply,SBD,M
Boys,110,7,Mario Ortiz,Edinburg North,108.41,195.04,124.74,197.31,517.1,Single-ply,SBD,M
Boys,110,8,Eloy Lopez,Edinburg North,107.23,165.56,108.86,190.51,464.93,Single-ply,SBD,M
Boys,110,DQ,Jarome Torres,McAllen Memorial,107.86,226.8,147.42,,,Single-ply,SBD,M
Boys,110,DQ,Orlando Gonzalez,Edinburg North,103.33,142.88,,,,Single-ply,SBD,M
Boys,110,DQ,Jesus Mercado,Roma,107.59,176.9,,,,Single-ply,SBD,M
Boys,125,1,Teodoro Garcia,McAllen Memorial,115.3,272.16,190.51,240.4,703.07,Single-ply,SBD,M
Boys,125,2,Pablo Trevino,Edinburg Vela,120.38,267.62,165.56,249.48,682.66,Single-ply,SBD,M
Boys,125,3,Fabian Castillo,Edinburg Economedes,117.75,240.4,158.76,258.55,657.71,Single-ply,SBD,M
Boys,125,4,Jesus Zapata,Roma,111.13,276.69,156.49,195.04,628.23,Single-ply,SBD,M
Boys,125,5,Rudy De La Torre,Weslaco,124.65,267.62,142.88,215.46,625.96,Single-ply,SBD,M
Boys,125,6,Juan Mireles,Port Isabel,118.02,263.08,138.35,217.72,619.15,Single-ply,SBD,M
Boys,125,7,Marcos Garza,Edinburg Economedes,115.76,244.94,149.69,222.26,616.89,Single-ply,SBD,M
Boys,125,8,Marcos Solis,Roma,116.85,240.4,133.81,201.85,576.06,Single-ply,SBD,M
Boys,125,9,Arturo Ochoa,McAllen,121.93,226.8,147.42,190.51,564.72,Single-ply,SBD,M
Boys,125,10,Isaac Rodriguez,McAllen,124.28,206.38,124.74,206.38,537.51,Single-ply,SBD,M
Boys,125,11,Ernie Cantu,Edinburg Vela,110.86,188.24,129.27,190.51,508.02,Single-ply,SBD,M
Boys,125,12,Gerarado Lopez,McAllen,115.39,201.85,127.01,163.29,492.15,Single-ply,SBD,M
Boys,125,13,Josue Cantu,Edinburg Vela,112.67,183.7,120.2,161.03,464.93,Single-ply,SBD,M
Boys,125,14,Mat Leal,Edinburg North,115.48,170.1,120.2,174.63,464.93,Single-ply,SBD,M
Boys,125,DQ,Hugo Iglesias,McAllen Memorial,116.03,,,,,Single-ply,SBD,M
Boys,125,DQ,Gabino Barrera,Roma,113.13,,,,,Single-ply,SBD,M
Boys,125+,1,Brandon Perez,Weslaco,158.85,299.37,163.29,240.4,703.07,Single-ply,SBD,M
Boys,125+,2,Aaron Rivera,McAllen Rowe,165.56,233.6,165.56,242.67,641.83,Single-ply,SBD,M
Boys,125+,3,Michael Vega,McAllen Rowe,127.55,258.55,170.1,204.12,632.76,Single-ply,SBD,M
Boys,125+,4,Caleb Luna,Edinburg Vela,134.17,238.14,151.95,201.85,591.94,Single-ply,SBD,M
Boys,125+,5,Jose Carrillo,Edinburg,127.69,238.14,145.15,199.58,582.87,Single-ply,SBD,M
Boys,125+,6,Mike Valdez,Edinburg North,132.36,183.7,122.47,197.31,503.49,Single-ply,SBD,M
Boys,125+,7,Zack Hettler,McAllen,137.89,174.63,145.15,165.56,485.34,Single-ply,SBD,M
Boys,125+,8,Jose Marquez,Edinburg,141.25,170.1,102.06,204.12,476.27,Single-ply,SBD,M
Boys,125+,9,Cesar Davila,McAllen Memorial,150.5,183.7,124.74,158.76,467.2,Single-ply,SBD,M
Boys,125+,10,Juan Hernandez #6,McAllen Memorial,126.46,149.69,124.74,174.63,449.06,Single-ply,SBD,M
Boys,125+,11,Pablo Gonzalez,Roma,131.18,163.29,95.25,185.97,444.52,Single-ply,SBD,M
Boys,125+,12,Nathaniel Nino,Edinburg North,153.95,142.88,97.52,151.95,392.36,Single-ply,SBD,M
Boys,125+,DQ,Justin Medina,Edinburg Economedes,139.8,,,,,Single-ply,SBD,M
